flexsdm: Overview of Modeling functions • flexsdm
…
performance: The performance metric (see sdm_eval). Those metrics that are threshold dependent are calculated based on the threshold specified in the argument. We can see all the selected threshold values.

max_t1$data_ens
#> # A tibble: 1,400 x 5
#>    rnames replicates part  pr_ab     pred
#>    <chr>  <chr>      <chr> <dbl>    <dbl>
#>  1 3      .part      1         0 0.791   
#>  2 8      .part      1         0 0.675   
#>  3 10     .part      1         0 0.800   
#>  4 12     .part      1         0 0.350   
#>  5 15     .part      1         0 0.794   
#>  6 17     .part      1         0 0.595   
#>  7 19     .part      1         0 0.706   
#>  8 24     .part      1         0 0.881   
#>  9 29     .part      1         0 0.000754
#> 10 43     .part      1         0 0.921   
#> # ... with 1,390 more rows
…
rf_t$performance
#> # A tibble: 1 x 26
#>    mtry model threshold     thr_value n_presences n_absences TPR_mean TPR_sd
#>   <dbl> <chr> <chr>             <dbl>       <int>      <int>    <dbl>  <dbl>
#> 1     1 raf   max_sens_spec     0.606         700        700    0.911 0.0415
#> # ... with 18 more variables: TNR_mean <dbl>, TNR_sd <dbl>,
#> #   SORENSEN_mean <dbl>, SORENSEN_sd <dbl>, JACCARD_mean <dbl>,
#> #   JACCARD_sd <dbl>, FPB_mean <dbl>, FPB_sd <dbl>, OR_mean <dbl>, OR_sd <dbl>,
#> #   TSS_mean <dbl>, TSS_sd <dbl>, AUC_mean <dbl>, AUC_sd <dbl>,
#> #   BOYCE_mean <dbl>, BOYCE_sd <dbl>, IMAE_mean <dbl>, IMAE_sd <dbl>

performance: The performance metric (see sdm_eval). Those metrics that are threshold dependent are calculated based on the threshold specified in the argument. We can see all the selected threshold values.

rf_t$data_ens
#> # A tibble: 1,400 x 5
#>    rnames replicates part  pr_ab  pred
#>    <chr>  <chr>      <chr> <fct> <dbl>
#>  1 3      .part      1     0     0.056
#>  2 8      .part      1     0     0.15 
#>  3 10     .part      1     0     0.156
#>  4 12     .part      1     0     0.376
#>  5 15     .part      1     0     0.182
#>  6 17     .part      1     0     0.126
#>  7 19     .part      1     0     0.126
#>  8 24     .part      1     0     0.866
#>  9 29     .part      1     0     0.016
#> 10 43     .part      1     0     0.862
#> # ... with 1,390 more rows
…
