flexsdm: Red Fir example • flexsdm
…
# Bind a presences and pseudo-absences
abies_df2 <- bind_rows(abies_df2, psa)

abies_df2 # Presence-Pseudo-absence database
#> # A tibble: 438 x 4
#>          x        y pr_ab .part
#>      <dbl>    <dbl> <dbl> <dbl>
#>  1 -12558.   68530.     1     2
#>  2 115217. -145937.     1     3
#>  3   3634.   22501.     1     2
#>  4  44972.  -60781.     1     3
#>  5 -34463.  160313.     1     4
#>  6  83108.  -27300.     1     3
#>  7 124877. -176319.     1     3
#>  8 118707. -179991.     1     3
#>  9 126141. -176302.     1     3
#> 10 -49722.  141124.     1     2
#> # ... with 428 more rows
bg # Background points
#> # A tibble: 2,190 x 4
#>          x        y pr_ab .part
#>      <dbl>    <dbl> <dbl> <dbl>
#>  1  41169. -235318.     0     1
#>  2  48729. -303358.     0     1
#>  3 311439. -462118.     0     1
#>  4 224499. -488578.     0     1
#>  5  35499. -344938.     0     1
#>  6 273639. -569848.     0     1
#>  7  50619. -257998.     0     1
#>  8 126219. -254218.     0     1
#>  9  67629. -394078.     0     1
#> 10 318999. -465898.     0     1
#> # ... with 2,180 more rows
…
