…
## Data, species occurrence and background data

In this tutorial, we will be using species occurrences that are
available through the *flexsdm* package. The “spp” example dataset
includes pr_ab column (presence = 1, and absence = 0), and location
columns (x, y). You can load the “spp” data into your local R
environment by using the code below:

``` r
data("spp")

spp
#> # A tibble: 1,150 × 4
#>    species        x        y pr_ab
#>    <chr>      <dbl>    <dbl> <dbl>
#>  1 sp1       -5541. -145138.     0
#>  2 sp1      -51981.   16322.     0
#>  3 sp1     -269871.   69512.     1
#>  4 sp1      -96261.  -32008.     0
#>  5 sp1      269589. -566338.     0
#>  6 sp1       29829. -328468.     0
#>  7 sp1     -152691.  393782.     0
#>  8 sp1     -195081.  253652.     0
#>  9 sp1        -951. -277978.     0
#> 10 sp1      145929. -271498.     0
#> # ℹ 1,140 more rows
```
…
``` r
filt_selected <- occfilt_select(
  occ_list = filt_geo2,
  x = "x", y = "y",
  env_layer = somevar, filter_prop = TRUE
)
#> Dataset with filtered value 8 was selected
filt_selected
#> $occ
#> # A tibble: 156 × 4
#>    species        x        y   idd
#>    <chr>      <dbl>    <dbl> <int>
#>  1 sp1     -269871.   69512.     1
#>  2 sp1     -149991.  267962.     2
#>  3 sp1       91659. -156748.     4
#>  4 sp1     -210471.  326282.     5
#>  5 sp1     -140541.  284972.     6
#>  6 sp1     -217491.   65732.     7
#>  7 sp1      -92481.  155642.    12
#>  8 sp1     -367611.  266072.    13
#>  9 sp1     -184551.  425372.    15
#> 10 sp1     -260151.   57632.    18
#> # ℹ 146 more rows
…
