flexsdm: Overview of Modeling functions • flexsdm
…
Predicted suitability for each test partition (row) based on the best
model. This database is used in fit_ensemble.

max_t1$data_ens
#> # A tibble: 1,400 × 5
#>    rnames replicates part  pr_ab   pred
#>    <chr>  <chr>      <chr> <dbl>  <dbl>
#>  1 5      .part      1         0 0.671 
#>  2 9      .part      1         0 0.625 
#>  3 12     .part      1         0 0.307 
#>  4 13     .part      1         0 0.0389
#>  5 14     .part      1         0 0.315 
#>  6 16     .part      1         0 0.220 
#>  7 20     .part      1         0 0.110 
#>  8 22     .part      1         0 0.212 
#>  9 27     .part      1         0 0.680 
#> 10 31     .part      1         0 0.407 
#> # ℹ 1,390 more rows
…
Predicted suitability for each test partition (row) based on the best
model. This database is used in fit_ensemble.

rf_t$data_ens
#> # A tibble: 1,400 × 5
#>    rnames replicates part  pr_ab  pred
#>    <chr>  <chr>      <chr> <fct> <dbl>
#>  1 5      .part      1     0     0.468
#>  2 9      .part      1     0     0.408
#>  3 12     .part      1     0     0.534
#>  4 13     .part      1     0     0.018
#>  5 14     .part      1     0     0.05 
#>  6 16     .part      1     0     0.02 
#>  7 20     .part      1     0     0.452
#>  8 22     .part      1     0     0.032
#>  9 27     .part      1     0     0.226
#> 10 31     .part      1     0     0.194
#> # ℹ 1,390 more rows
…
