…
Predicted suitability for each test partition (row) based on the best
model. This database is used in fit_ensemble.

``` r
max_t1$data_ens
#> # A tibble: 1,400 × 5
#>    rnames replicates part  pr_ab   pred
#>    <chr>  <chr>      <chr> <dbl>  <dbl>
#>  1 8      .part      1         0 0.600 
#>  2 11     .part      1         0 0.237 
#>  3 13     .part      1         0 0.0483
#>  4 20     .part      1         0 0.115 
#>  5 32     .part      1         0 0.716 
#>  6 33     .part      1         0 0.0430
#>  7 48     .part      1         0 0.143 
#>  8 55     .part      1         0 0.726 
#>  9 65     .part      1         0 0.850 
#> 10 75     .part      1         0 0.308 
#> # ℹ 1,390 more rows
```
…
Predicted suitability for each test partition (row) based on the best
model. This database is used in fit_ensemble.

``` r
rf_t$data_ens
#> # A tibble: 1,400 × 5
#>    rnames replicates part  pr_ab  pred
#>    <chr>  <chr>      <chr> <fct> <dbl>
#>  1 8      .part      1     0     0.156
#>  2 11     .part      1     0     0.152
#>  3 13     .part      1     0     0.01 
#>  4 20     .part      1     0     0.476
#>  5 32     .part      1     0     0.126
#>  6 33     .part      1     0     0.078
#>  7 48     .part      1     0     0.01 
#>  8 55     .part      1     0     0.148
#>  9 65     .part      1     0     0.444
#> 10 75     .part      1     0     0.086
#> # ℹ 1,390 more rows
```
…
