flexsdm: Red Fir example • flexsdm
…
# Bind a presences and pseudo-absences
abies_pa <- bind_rows(abies_pf, psa)
abies_pa # Presence-Pseudo-absence database
#> # A tibble: 432 × 4
#>          x        y pr_ab .part
#>      <dbl>    <dbl> <dbl> <dbl>
#>  1 -12558.   68530.     1     2
#>  2 115217. -145937.     1     4
#>  3   3634.   22501.     1     2
#>  4  44972.  -60781.     1     2
#>  5 -34463.  160313.     1     3
#>  6  83108.  -27300.     1     2
#>  7 124877. -176319.     1     4
#>  8 118707. -179991.     1     4
#>  9 126141. -176302.     1     4
#> 10 -49722.  141124.     1     3
#> # … with 422 more rows
bg # Background points
#> # A tibble: 2,160 × 4
#>           x       y pr_ab .part
#>       <dbl>   <dbl> <dbl> <dbl>
#>  1 -153501. 392162.     0     1
#>  2  -89241. 263642.     0     1
#>  3  -89241.  27392.     0     1
#>  4 -130821. 331682.     0     1
#>  5 -132711. 339242.     0     1
#>  6  -51441. -63328.     0     1
#>  7  -59001.  67082.     0     1
#>  8  -32541. -51988.     0     1
#>  9  -96801.    932.     0     1
#> 10  -47661. -31198.     0     1
#> # … with 2,150 more rows
…
