flexsdm: Tools to explore extrapolation in SDMs • flexsdm
…
# Bind a presences and pseudo-absences
hespero_pa <- bind_rows(hespero, psa)
hespero_pa # Presence-Pseudo-absence database
#> # A tibble: 42 × 3
#>          x        y pr_ab
#>      <dbl>    <dbl> <dbl>
#>  1 316923. -557843.     1
#>  2 317155. -559234.     1
#>  3 316960. -558186.     1
#>  4 314347. -559648.     1
#>  5 317348. -557349.     1
#>  6 316753. -559679.     1
#>  7 316777. -558644.     1
#>  8 317050. -559043.     1
#>  9 316655. -559928.     1
#> 10 316418. -567439.     1
#> # ℹ 32 more rows
…
