Perform environmental filtering on species occurrences — env_filtering • flexsdm
…
# Envirnomental variables
somevar <- system.file("external/somevar.tif", package = "flexsdm")
somevar <- terra::rast(somevar)

plot(somevar)

# Species occurrences
data("spp")
spp
<<<<<<< HEAD
<<<<<<< HEAD

#> # A tibble: 1,150 x 4
#>    species        x        y pr_ab
#>    <chr>      <dbl>    <dbl> <dbl>
#>  1 sp1       -5541. -145138.     0
#>  2 sp1      -51981.   16322.     0
#>  3 sp1     -269871.   69512.     1
#>  4 sp1      -96261.  -32008.     0
#>  5 sp1      269589. -566338.     0
#>  6 sp1       29829. -328468.     0
#>  7 sp1     -152691.  393782.     0
#>  8 sp1     -195081.  253652.     0
#>  9 sp1        -951. -277978.     0
#> 10 sp1      145929. -271498.     0
#> # … with 1,140 more rows
…
