Fit and validate Generalized Additive Models based on Ensemble of Small of Model approach — esm_max • flexsdm
…
set.seed(10)
backg2 <- backg %>%
  na.omit() %>%
  group_by(pr_ab) %>%
  dplyr::slice_sample(n = 100) %>%
  group_by()

backg2 <- part_random(
  data = backg2,
  pr_ab = "pr_ab",
  method = c(method = "rep_kfold", folds = 5, replicates = 5)
)
backg2

#> # A tibble: 100 x 18
#>    pr_ab        x        y   aet   cwd   tmin ppt_djf ppt_jja     pH      awc
#>    <dbl>    <dbl>    <dbl> <dbl> <dbl>  <dbl>   <dbl>   <dbl>  <dbl>    <dbl>
#>  1     0  -23361.  129722.  448.  257.  0.683   285.   19.6   0.0230 0.000356
#>  2     0   54669. -311728.  149. 1328. 10.9      24.7   0.710 8.20   0.0900  
#>  3     0 -162141.  -59278.  332.  863.  9.56    110.    1.92  6.34   0.138   
#>  4     0  185349. -426208.  380. 1105. 11.6     105.    3.04  0.588  0.00995 
#>  5     0  125949. -180238.  220.  303. -4.75    216.    9.95  0      0       
#>  6     0  -27411. -378148.  322. 1047.  8.13     87.8   0.717 7.73   0.141   
#>  7     0   17409.  -99508.  340. 1003.  8.15     93.7   1.49  6.5    0.0708  
#>  8     0 -216411.  432662.  259.  657.  4.44    110.   16.3   5.37   0.0704  
#>  9     0  311709. -456718.  271.  877.  6.34     83.0   8.45  0      0       
#> 10     0 -211821.  419972.  369.  633.  3.36     73.2  16.6   6.12   0.158   
#> # ... with 90 more rows, and 8 more variables: depth <dbl>, percent_clay <dbl>,
#> #   landform <fct>, .part1 <int>, .part2 <int>, .part3 <int>, .part4 <int>,
#> #   .part5 <int>
…
