Fit and validate Generalized Linear Models — fit_glm • flexsdm
…
predictors: A tibble with quantitative (c column names) and qualitative (f column names) variables use for modeling.

performance: Performance metric (see sdm_eval).
Those threshold dependent metric are calculated based on the threshold specified in thr argument .

data_ens: Predicted suitability for each test partition. This database is used in fit_ensemble

    Examples

# \dontrun{
data("abies")
abies

#> # A tibble: 1,400 x 13
#>       id pr_ab        x        y   aet   cwd  tmin ppt_djf ppt_jja    pH    awc
#>    <int> <dbl>    <dbl>    <dbl> <dbl> <dbl> <dbl>   <dbl>   <dbl> <dbl>  <dbl>
#>  1   715     0  -95417.  314240.  323.  546.  1.24    62.7   17.8   5.77 0.108 
#>  2  5680     0   98987. -159415.  448.  815.  9.43   130.     6.43  5.60 0.160 
#>  3  7907     0  121474.  -99463.  182.  271. -4.95   151.    11.2   0    0     
#>  4  1850     0  -39976.  -17456.  372.  946.  8.78   116.     2.70  6.41 0.0972
#>  5  1702     0  111372.  -91404.  209.  399. -4.03   165.     9.27  0    0     
#>  6 10036     0 -255715.  392229.  308.  535.  4.66   166.    16.5   5.70 0.0777
#>  7 12384     0 -311765.  380213.  568.  352.  4.38   480.    41.2   5.80 0.110 
#>  8  6513     0  111360. -120229.  327.  633.  4.93   163.     8.91  1.18 0.0116
#>  9  9884     0 -284326.  442136.  377.  446.  3.99   296.    16.8   5.96 0.0900
#> 10  8651     0  137640. -110538.  215.  265. -4.62   180.     9.57  0    0     
#> # ... with 1,390 more rows, and 2 more variables: depth <dbl>, landform <fct>

# Using k-fold partition method
abies2 <- part_random(
  data = abies,
  pr_ab = "pr_ab",
  method = c(method = "kfold", folds = 5)
)
abies2

#> # A tibble: 1,400 x 14
#>       id pr_ab        x        y   aet   cwd  tmin ppt_djf ppt_jja    pH    awc
#>    <int> <dbl>    <dbl>    <dbl> <dbl> <dbl> <dbl>   <dbl>   <dbl> <dbl>  <dbl>
#>  1   715     0  -95417.  314240.  323.  546.  1.24    62.7   17.8   5.77 0.108 
#>  2  5680     0   98987. -159415.  448.  815.  9.43   130.     6.43  5.60 0.160 
#>  3  7907     0  121474.  -99463.  182.  271. -4.95   151.    11.2   0    0     
#>  4  1850     0  -39976.  -17456.  372.  946.  8.78   116.     2.70  6.41 0.0972
#>  5  1702     0  111372.  -91404.  209.  399. -4.03   165.     9.27  0    0     
#>  6 10036     0 -255715.  392229.  308.  535.  4.66   166.    16.5   5.70 0.0777
#>  7 12384     0 -311765.  380213.  568.  352.  4.38   480.    41.2   5.80 0.110 
#>  8  6513     0  111360. -120229.  327.  633.  4.93   163.     8.91  1.18 0.0116
#>  9  9884     0 -284326.  442136.  377.  446.  3.99   296.    16.8   5.96 0.0900
#> 10  8651     0  137640. -110538.  215.  265. -4.62   180.     9.57  0    0     
#> # ... with 1,390 more rows, and 3 more variables: depth <dbl>, landform <fct>,
#> #   .part <int>
…
#> # A tibble: 3 x 25
#>   model threshold      thr_value n_presences n_absences TPR_mean TPR_sd TNR_mean
#>   <chr> <chr>              <dbl>       <int>      <int>    <dbl>  <dbl>    <dbl>
#> 1 glm   equal_sens_sp~     0.523         700        700    0.659 0.0317    0.66 
#> 2 glm   max_sens_spec      0.463         700        700    0.747 0.0777    0.626
#> 3 glm   max_sorensen       0.356         700        700    0.886 0.0551    0.466
#> # ... with 17 more variables: TNR_sd <dbl>, SORENSEN_mean <dbl>,
#> #   SORENSEN_sd <dbl>, JACCARD_mean <dbl>, JACCARD_sd <dbl>, FPB_mean <dbl>,
#> #   FPB_sd <dbl>, OR_mean <dbl>, OR_sd <dbl>, TSS_mean <dbl>, TSS_sd <dbl>,
#> #   AUC_mean <dbl>, AUC_sd <dbl>, BOYCE_mean <dbl>, BOYCE_sd <dbl>,
#> #   IMAE_mean <dbl>, IMAE_sd <dbl>
glm_t1$data_ens

#> # A tibble: 1,400 x 5
#>    rnames replicates part  pr_ab  pred
#>    <chr>  <chr>      <chr> <dbl> <dbl>
#>  1 1      .part      1         0 0.658
#>  2 18     .part      1         0 0.385
#>  3 28     .part      1         0 0.618
#>  4 35     .part      1         0 0.359
#>  5 41     .part      1         0 0.263
#>  6 43     .part      1         0 0.761
#>  7 51     .part      1         0 0.696
#>  8 52     .part      1         0 0.635
#>  9 62     .part      1         0 0.418
#> 10 63     .part      1         0 0.280
#> # ... with 1,390 more rows
…
# Using repeated k-fold partition method
abies2 <- part_random(
  data = abies,
  pr_ab = "pr_ab",
  method = c(method = "rep_kfold", folds = 3, replicates = 5)
)
abies2

#> # A tibble: 1,400 x 18
#>       id pr_ab        x        y   aet   cwd  tmin ppt_djf ppt_jja    pH    awc
#>    <int> <dbl>    <dbl>    <dbl> <dbl> <dbl> <dbl>   <dbl>   <dbl> <dbl>  <dbl>
#>  1   715     0  -95417.  314240.  323.  546.  1.24    62.7   17.8   5.77 0.108 
#>  2  5680     0   98987. -159415.  448.  815.  9.43   130.     6.43  5.60 0.160 
#>  3  7907     0  121474.  -99463.  182.  271. -4.95   151.    11.2   0    0     
#>  4  1850     0  -39976.  -17456.  372.  946.  8.78   116.     2.70  6.41 0.0972
#>  5  1702     0  111372.  -91404.  209.  399. -4.03   165.     9.27  0    0     
#>  6 10036     0 -255715.  392229.  308.  535.  4.66   166.    16.5   5.70 0.0777
#>  7 12384     0 -311765.  380213.  568.  352.  4.38   480.    41.2   5.80 0.110 
#>  8  6513     0  111360. -120229.  327.  633.  4.93   163.     8.91  1.18 0.0116
#>  9  9884     0 -284326.  442136.  377.  446.  3.99   296.    16.8   5.96 0.0900
#> 10  8651     0  137640. -110538.  215.  265. -4.62   180.     9.57  0    0     
#> # ... with 1,390 more rows, and 7 more variables: depth <dbl>, landform <fct>,
#> #   .part1 <int>, .part2 <int>, .part3 <int>, .part4 <int>, .part5 <int>
…
