Fit and validate Generalized Boosted Regression models — fit_gbm • flexsdm
…
    Examples

# \dontrun{
data("abies")

# Using k-fold partition method
abies2 <- part_random(
  data = abies,
  pr_ab = "pr_ab",
  method = c(method = "kfold", folds = 10)
)
abies2

#> # A tibble: 1,400 x 14
#>       id pr_ab        x        y   aet   cwd  tmin ppt_djf ppt_jja    pH    awc
#>    <int> <dbl>    <dbl>    <dbl> <dbl> <dbl> <dbl>   <dbl>   <dbl> <dbl>  <dbl>
#>  1   715     0  -95417.  314240.  323.  546.  1.24    62.7   17.8   5.77 0.108 
#>  2  5680     0   98987. -159415.  448.  815.  9.43   130.     6.43  5.60 0.160 
#>  3  7907     0  121474.  -99463.  182.  271. -4.95   151.    11.2   0    0     
#>  4  1850     0  -39976.  -17456.  372.  946.  8.78   116.     2.70  6.41 0.0972
#>  5  1702     0  111372.  -91404.  209.  399. -4.03   165.     9.27  0    0     
#>  6 10036     0 -255715.  392229.  308.  535.  4.66   166.    16.5   5.70 0.0777
#>  7 12384     0 -311765.  380213.  568.  352.  4.38   480.    41.2   5.80 0.110 
#>  8  6513     0  111360. -120229.  327.  633.  4.93   163.     8.91  1.18 0.0116
#>  9  9884     0 -284326.  442136.  377.  446.  3.99   296.    16.8   5.96 0.0900
#> 10  8651     0  137640. -110538.  215.  265. -4.62   180.     9.57  0    0     
#> # ... with 1,390 more rows, and 3 more variables: depth <dbl>, landform <fct>,
#> #   .part <int>
…
#> # A tibble: 3 x 25
#>   model threshold      thr_value n_presences n_absences TPR_mean TPR_sd TNR_mean
#>   <chr> <chr>              <dbl>       <int>      <int>    <dbl>  <dbl>    <dbl>
#> 1 gbm   equal_sens_sp~     0.518         700        700    0.684 0.0359    0.687
#> 2 gbm   max_sens_spec      0.462         700        700    0.747 0.0936    0.687
#> 3 gbm   max_sorensen       0.393         700        700    0.891 0.0629    0.503
#> # ... with 17 more variables: TNR_sd <dbl>, SORENSEN_mean <dbl>,
#> #   SORENSEN_sd <dbl>, JACCARD_mean <dbl>, JACCARD_sd <dbl>, FPB_mean <dbl>,
#> #   FPB_sd <dbl>, OR_mean <dbl>, OR_sd <dbl>, TSS_mean <dbl>, TSS_sd <dbl>,
#> #   AUC_mean <dbl>, AUC_sd <dbl>, BOYCE_mean <dbl>, BOYCE_sd <dbl>,
#> #   IMAE_mean <dbl>, IMAE_sd <dbl>
gbm_t1$data_ens

#> # A tibble: 1,400 x 5
#>    rnames replicates part  pr_ab  pred
#>    <chr>  <chr>      <chr> <dbl> <dbl>
#>  1 1      .part      1         0 0.116
#>  2 2      .part      1         0 0.522
#>  3 3      .part      1         0 0.379
#>  4 4      .part      1         0 0.802
#>  5 5      .part      1         0 0.357
#>  6 6      .part      1         0 0.377
#>  7 7      .part      1         0 0.560
#>  8 8      .part      1         0 0.225
#>  9 9      .part      1         0 0.320
#> 10 10     .part      1         0 0.877
#> # ... with 1,390 more rows

# Using bootstrap partition method
abies2 <- part_random(
  data = abies,
  pr_ab = "pr_ab",
  method = c(method = "boot", replicates = 10, proportion = 0.7)
)
abies2

#> # A tibble: 1,400 x 23
#>       id pr_ab        x        y   aet   cwd  tmin ppt_djf ppt_jja    pH    awc
#>    <int> <dbl>    <dbl>    <dbl> <dbl> <dbl> <dbl>   <dbl>   <dbl> <dbl>  <dbl>
#>  1   715     0  -95417.  314240.  323.  546.  1.24    62.7   17.8   5.77 0.108 
#>  2  5680     0   98987. -159415.  448.  815.  9.43   130.     6.43  5.60 0.160 
#>  3  7907     0  121474.  -99463.  182.  271. -4.95   151.    11.2   0    0     
#>  4  1850     0  -39976.  -17456.  372.  946.  8.78   116.     2.70  6.41 0.0972
#>  5  1702     0  111372.  -91404.  209.  399. -4.03   165.     9.27  0    0     
#>  6 10036     0 -255715.  392229.  308.  535.  4.66   166.    16.5   5.70 0.0777
#>  7 12384     0 -311765.  380213.  568.  352.  4.38   480.    41.2   5.80 0.110 
#>  8  6513     0  111360. -120229.  327.  633.  4.93   163.     8.91  1.18 0.0116
#>  9  9884     0 -284326.  442136.  377.  446.  3.99   296.    16.8   5.96 0.0900
#> 10  8651     0  137640. -110538.  215.  265. -4.62   180.     9.57  0    0     
#> # ... with 1,390 more rows, and 12 more variables: depth <dbl>, landform <fct>,
#> #   .part1 <chr>, .part2 <chr>, .part3 <chr>, .part4 <chr>, .part5 <chr>,
#> #   .part6 <chr>, .part7 <chr>, .part8 <chr>, .part9 <chr>, .part10 <chr>
…
#> 1 ppt_jja pH    awc   landform
#> 
#> $performance
#> # A tibble: 1 x 25
#>   model threshold     thr_value n_presences n_absences TPR_mean TPR_sd TNR_mean
#>   <chr> <chr>             <dbl>       <int>      <int>    <dbl>  <dbl>    <dbl>
#> 1 gbm   max_sens_spec     0.551         700        700    0.673 0.0475    0.700
#> # ... with 17 more variables: TNR_sd <dbl>, SORENSEN_mean <dbl>,
#> #   SORENSEN_sd <dbl>, JACCARD_mean <dbl>, JACCARD_sd <dbl>, FPB_mean <dbl>,
#> #   FPB_sd <dbl>, OR_mean <dbl>, OR_sd <dbl>, TSS_mean <dbl>, TSS_sd <dbl>,
#> #   AUC_mean <dbl>, AUC_sd <dbl>, BOYCE_mean <dbl>, BOYCE_sd <dbl>,
#> #   IMAE_mean <dbl>, IMAE_sd <dbl>
#> 
#> $data_ens
#> # A tibble: 4,200 x 5
#>    rnames replicates part  pr_ab  pred
#>    <chr>  <chr>      <chr> <dbl> <dbl>
#>  1 1      .part1     1         0 0.491
#>  2 2      .part1     1         0 0.305
#>  3 3      .part1     1         0 0.628
#>  4 4      .part1     1         0 0.528
#>  5 5      .part1     1         0 0.345
#>  6 6      .part1     1         0 0.638
#>  7 7      .part1     1         0 0.615
#>  8 8      .part1     1         0 0.570
#>  9 9      .part1     1         0 0.292
#> 10 10     .part1     1         0 0.386
#> # ... with 4,190 more rows
…
