Spatial block cross-validation — part_sblock • flexsdm
…
#> 4 rows were excluded from database because NAs were found
#> The following grid cell sizes will be tested:
#> 18900 | 50834.48 | 82768.97 | 114703.45 | 146637.93 | 178572.41 | 210506.9 | 242441.38 | 274375.86 | 306310.34 | 338244.83 | 370179.31 | 402113.79 | 434048.28 | 465982.76 | 497917.24 | 529851.72 | 561786.21 | 593720.69 | 625655.17 | 657589.66 | 689524.14 | 721458.62 | 753393.1 | 785327.59 | 817262.07 | 849196.55 | 881131.03 | 913065.52 | 945000
#> Creating basic raster mask...
#> Searching for the optimal grid size...
part

#> $part
#> # A tibble: 46 x 4
#>           x        y pr_ab .part
#>       <dbl>    <dbl> <dbl> <dbl>
#>  1  -26331.  209912.     1     1
#>  2 -134331.  195332.     1     1
#>  3   68709. -288778.     0     2
#>  4  -79251.  -54418.     0     2
#>  5   97869. -307948.     0     2
#>  6    4989. -119218.     0     2
#>  7   30369. -143788.     0     2
#>  8   91929. -248008.     0     2
#>  9  -80331.   32792.     0     1
#> 10  131079. -140548.     1     2
#> # ... with 36 more rows
…
part$part

#> # A tibble: 46 x 4
#>           x        y pr_ab .part
#>       <dbl>    <dbl> <dbl> <dbl>
#>  1  -26331.  209912.     1     1
#>  2 -134331.  195332.     1     1
#>  3   68709. -288778.     0     2
#>  4  -79251.  -54418.     0     2
#>  5   97869. -307948.     0     2
#>  6    4989. -119218.     0     2
#>  7   30369. -143788.     0     2
#>  8   91929. -248008.     0     2
#>  9  -80331.   32792.     0     1
#> 10  131079. -140548.     1     2
#> # ... with 36 more rows
…
# Lets create a single database for all species
occ_part <- dplyr::bind_rows(lapply(
  part_list,
  function(x) x[[1]]
), .id = "species")
occ_part

#> # A tibble: 1,089 x 5
#>    species        x        y pr_ab .part
#>    <chr>      <dbl>    <dbl> <dbl> <dbl>
#>  1 sp1       -5541. -145138.     0     2
#>  2 sp1      -51981.   16322.     0     2
#>  3 sp1     -269871.   69512.     1     2
#>  4 sp1      -96261.  -32008.     0     2
#>  5 sp1      269589. -566338.     0     2
#>  6 sp1       29829. -328468.     0     2
#>  7 sp1     -152691.  393782.     0     1
#>  8 sp1     -195081.  253652.     0     1
#>  9 sp1        -951. -277978.     0     2
#> 10 sp1      145929. -271498.     0     2
#> # ... with 1,079 more rows
…
# Block partition for presences-only database
single_spp <- spp %>%
  dplyr::filter(species == "sp2", pr_ab == 1)
single_spp

#> # A tibble: 25 x 4
#>    species        x        y pr_ab
#>    <chr>      <dbl>    <dbl> <dbl>
#>  1 sp2     -169701.   40352.     1
#>  2 sp2     -175101.  182642.     1
#>  3 sp2     -152151.  110552.     1
#>  4 sp2       34149. -168088.     1
#>  5 sp2      -88701. -248008.     1
#>  6 sp2      -63051.  -45508.     1
#>  7 sp2     -177801.  138632.     1
#>  8 sp2     -196431.  187772.     1
#>  9 sp2       54399. -125158.     1
#> 10 sp2      -35511.  -47128.     1
#> # ... with 15 more rows
…
#> The following grid cell sizes will be tested:
#> 18900 | 50834.48 | 82768.97 | 114703.45 | 146637.93 | 178572.41 | 210506.9 | 242441.38 | 274375.86 | 306310.34 | 338244.83 | 370179.31 | 402113.79 | 434048.28 | 465982.76 | 497917.24 | 529851.72 | 561786.21 | 593720.69 | 625655.17 | 657589.66 | 689524.14 | 721458.62 | 753393.1 | 785327.59 | 817262.07 | 849196.55 | 881131.03 | 913065.52 | 945000
#> Creating basic raster mask...
#> Searching for the optimal grid size...

part$part

#> # A tibble: 25 x 4
#>           x        y pr_ab .part
#>       <dbl>    <dbl> <dbl> <dbl>
#>  1 -169701.   40352.     1     1
#>  2 -175101.  182642.     1     1
#>  3 -152151.  110552.     1     1
#>  4   34149. -168088.     1     2
#>  5  -88701. -248008.     1     2
#>  6  -63051.  -45508.     1     2
#>  7 -177801.  138632.     1     1
#>  8 -196431.  187772.     1     1
#>  9   54399. -125158.     1     2
#> 10  -35511.  -47128.     1     2
#> # ... with 15 more rows
…
