Environmental and spatial cross-validation — part_senv • flexsdm
…
#> 51 rows were excluded from database because NAs were found
#> The following grid cell sizes will be tested:
#> 2 | 3 | 4 | 5 | 6 | 7 | 8 | 9 | 10
#> Searching best partition...

part1

#> $part
#> # A tibble: 949 x 4
#>           x        y pr_ab .part
#>       <dbl>    <dbl> <dbl> <int>
#>  1   -5541. -145138.     0     1
#>  2  -51981.   16322.     0     7
#>  3 -269871.   69512.     1     2
#>  4  -96261.  -32008.     0     4
#>  5  269589. -566338.     0     8
#>  6   29829. -328468.     0     6
#>  7 -152691.  393782.     0     9
#>  8 -195081.  253652.     0     5
#>  9    -951. -277978.     0     6
#> 10  145929. -271498.     0     1
#> # ... with 939 more rows
…
