Sample background points — sample_background • flexsdm
…
# Biased background points
spp_p # presences database of a species

#> # A tibble: 250 x 4
#>    species        x        y pr_ab
#>    <chr>      <dbl>    <dbl> <dbl>
#>  1 sp1     -269871.   69512.     1
#>  2 sp1     -149991.  267962.     1
#>  3 sp1     -126231.  196142.     1
#>  4 sp1       91659. -156748.     1
#>  5 sp1     -210471.  326282.     1
#>  6 sp1     -140541.  284972.     1
#>  7 sp1     -217491.   65732.     1
#>  8 sp1     -201831.   17132.     1
#>  9 sp1      -40101.  150782.     1
#> 10 sp1     -178611.  225032.     1
#> # ... with 240 more rows
…
