Fit and validate Generalized Boosted Regression models with exploration of hyper-parameters — tune_gbm • flexsdm
…
hyper_performance: Performance metric (see sdm_eval) for each combination of the hyper-parameters.

data_ens: Predicted suitability for each test partition based on the best model. This database is used in fit_ensemble

    See also

    tune_max, tune_net, tune_raf, and tune_svm.

    Examples

# \dontrun{
data(abies)
abies

#> # A tibble: 1,400 x 13
#>       id pr_ab        x        y   aet   cwd  tmin ppt_djf ppt_jja    pH    awc
#>    <int> <dbl>    <dbl>    <dbl> <dbl> <dbl> <dbl>   <dbl>   <dbl> <dbl>  <dbl>
#>  1   715     0  -95417.  314240.  323.  546.  1.24    62.7   17.8   5.77 0.108 
#>  2  5680     0   98987. -159415.  448.  815.  9.43   130.     6.43  5.60 0.160 
#>  3  7907     0  121474.  -99463.  182.  271. -4.95   151.    11.2   0    0     
#>  4  1850     0  -39976.  -17456.  372.  946.  8.78   116.     2.70  6.41 0.0972
#>  5  1702     0  111372.  -91404.  209.  399. -4.03   165.     9.27  0    0     
#>  6 10036     0 -255715.  392229.  308.  535.  4.66   166.    16.5   5.70 0.0777
#>  7 12384     0 -311765.  380213.  568.  352.  4.38   480.    41.2   5.80 0.110 
#>  8  6513     0  111360. -120229.  327.  633.  4.93   163.     8.91  1.18 0.0116
#>  9  9884     0 -284326.  442136.  377.  446.  3.99   296.    16.8   5.96 0.0900
#> 10  8651     0  137640. -110538.  215.  265. -4.62   180.     9.57  0    0     
#> # ... with 1,390 more rows, and 2 more variables: depth <dbl>, landform <fct>
…
#> # A tibble: 1 x 28
#>   n.trees shrinkage n.minobsinnode model threshold     thr_value n_presences
#>     <dbl>     <dbl>          <dbl> <chr> <chr>             <dbl>       <int>
#> 1      50         1              9 gbm   max_sens_spec     0.458         700
#> # ... with 21 more variables: n_absences <int>, TPR_mean <dbl>, TPR_sd <dbl>,
#> #   TNR_mean <dbl>, TNR_sd <dbl>, SORENSEN_mean <dbl>, SORENSEN_sd <dbl>,
#> #   JACCARD_mean <dbl>, JACCARD_sd <dbl>, FPB_mean <dbl>, FPB_sd <dbl>,
#> #   OR_mean <dbl>, OR_sd <dbl>, TSS_mean <dbl>, TSS_sd <dbl>, AUC_mean <dbl>,
#> #   AUC_sd <dbl>, BOYCE_mean <dbl>, BOYCE_sd <dbl>, IMAE_mean <dbl>,
#> #   IMAE_sd <dbl>
gbm_t$data_ens

#> # A tibble: 1,400 x 5
#>    rnames replicates part  pr_ab    pred
#>    <chr>  <chr>      <chr> <dbl>   <dbl>
#>  1 1      .part      1         0 0.00569
#>  2 2      .part      1         0 0.104  
#>  3 3      .part      1         0 0.125  
#>  4 4      .part      1         0 0.00853
#>  5 5      .part      1         0 0.0257 
#>  6 6      .part      1         0 0.00263
#>  7 7      .part      1         0 0.00760
#>  8 8      .part      1         0 0.0383 
#>  9 9      .part      1         0 0.187  
#> 10 10     .part      1         0 0.177  
#> # ... with 1,390 more rows
gbm_t$hyper_performance

#> # A tibble: 45 x 25
#>    n.trees shrinkage n.minobsinnode model threshold     TPR_mean TPR_sd TNR_mean
#>      <dbl>     <dbl>          <dbl> <chr> <chr>            <dbl>  <dbl>    <dbl>
#>  1      20       0.1              1 gbm   max_sens_spec    0.906 0.0185    0.74 
#>  2      20       0.1              3 gbm   max_sens_spec    0.906 0.0185    0.74 
#>  3      20       0.1              5 gbm   max_sens_spec    0.906 0.0185    0.74 
#>  4      20       0.1              7 gbm   max_sens_spec    0.906 0.0185    0.74 
#>  5      20       0.1              9 gbm   max_sens_spec    0.906 0.0185    0.74 
#>  6      20       0.5              1 gbm   max_sens_spec    0.88  0.0305    0.824
#>  7      20       0.5              3 gbm   max_sens_spec    0.88  0.0305    0.824
#>  8      20       0.5              5 gbm   max_sens_spec    0.88  0.0305    0.824
#>  9      20       0.5              7 gbm   max_sens_spec    0.88  0.0305    0.824
#> 10      20       0.5              9 gbm   max_sens_spec    0.88  0.0305    0.824
#> # ... with 35 more rows, and 17 more variables: TNR_sd <dbl>,
#> #   SORENSEN_mean <dbl>, SORENSEN_sd <dbl>, JACCARD_mean <dbl>,
#> #   JACCARD_sd <dbl>, FPB_mean <dbl>, FPB_sd <dbl>, OR_mean <dbl>, OR_sd <dbl>,
#> #   TSS_mean <dbl>, TSS_sd <dbl>, AUC_mean <dbl>, AUC_sd <dbl>,
#> #   BOYCE_mean <dbl>, BOYCE_sd <dbl>, IMAE_mean <dbl>, IMAE_sd <dbl>
…
