Fit and validate Neural Networks models with exploration of hyper-parameters — tune_net • flexsdm
…
hyper_performance: Performance metric (see sdm_eval) for each combination of the hyper-parameters.

data_ens: Predicted suitability for each test partition based on the best model. This database is used in fit_ensemble

    See also

    tune_gbm, tune_max, tune_raf, and tune_svm.

    Examples

# \dontrun{
data(abies)
abies

#> # A tibble: 1,400 x 13
#>       id pr_ab        x        y   aet   cwd  tmin ppt_djf ppt_jja    pH    awc
#>    <int> <dbl>    <dbl>    <dbl> <dbl> <dbl> <dbl>   <dbl>   <dbl> <dbl>  <dbl>
#>  1   715     0  -95417.  314240.  323.  546.  1.24    62.7   17.8   5.77 0.108 
#>  2  5680     0   98987. -159415.  448.  815.  9.43   130.     6.43  5.60 0.160 
#>  3  7907     0  121474.  -99463.  182.  271. -4.95   151.    11.2   0    0     
#>  4  1850     0  -39976.  -17456.  372.  946.  8.78   116.     2.70  6.41 0.0972
#>  5  1702     0  111372.  -91404.  209.  399. -4.03   165.     9.27  0    0     
#>  6 10036     0 -255715.  392229.  308.  535.  4.66   166.    16.5   5.70 0.0777
#>  7 12384     0 -311765.  380213.  568.  352.  4.38   480.    41.2   5.80 0.110 
#>  8  6513     0  111360. -120229.  327.  633.  4.93   163.     8.91  1.18 0.0116
#>  9  9884     0 -284326.  442136.  377.  446.  3.99   296.    16.8   5.96 0.0900
#> 10  8651     0  137640. -110538.  215.  265. -4.62   180.     9.57  0    0     
#> # ... with 1,390 more rows, and 2 more variables: depth <dbl>, landform <fct>
…
#> # A tibble: 1 x 27
#>    size decay model threshold   thr_value n_presences n_absences TPR_mean TPR_sd
#>   <dbl> <dbl> <chr> <chr>           <dbl>       <int>      <int>    <dbl>  <dbl>
#> 1     8     3 net   max_sens_s~     0.463         700        700    0.919 0.0486
#> # ... with 18 more variables: TNR_mean <dbl>, TNR_sd <dbl>,
#> #   SORENSEN_mean <dbl>, SORENSEN_sd <dbl>, JACCARD_mean <dbl>,
#> #   JACCARD_sd <dbl>, FPB_mean <dbl>, FPB_sd <dbl>, OR_mean <dbl>, OR_sd <dbl>,
#> #   TSS_mean <dbl>, TSS_sd <dbl>, AUC_mean <dbl>, AUC_sd <dbl>,
#> #   BOYCE_mean <dbl>, BOYCE_sd <dbl>, IMAE_mean <dbl>, IMAE_sd <dbl>
net_t$hyper_performance

#> # A tibble: 40 x 24
#>     size  decay model threshold    TPR_mean TPR_sd TNR_mean TNR_sd SORENSEN_mean
#>    <dbl>  <dbl> <chr> <chr>           <dbl>  <dbl>    <dbl>  <dbl>         <dbl>
#>  1     2  0.001 net   max_sens_sp~    0.4   0.548     0.6   0.548          0.267
#>  2     2  0.05  net   max_sens_sp~    0.926 0.0436    0.726 0.101          0.842
#>  3     2  0.1   net   max_sens_sp~    0.939 0.0314    0.687 0.0557         0.834
#>  4     2  1     net   max_sens_sp~    0.901 0.0333    0.8   0.0466         0.858
#>  5     2  3     net   max_sens_sp~    0.911 0.0297    0.764 0.0520         0.849
#>  6     2  4     net   max_sens_sp~    0.87  0.0796    0.796 0.101          0.839
#>  7     2  5     net   max_sens_sp~    0.864 0.0664    0.793 0.0657         0.834
#>  8     2 10     net   max_sens_sp~    0.904 0.0380    0.741 0.0402         0.836
#>  9     4  0.001 net   max_sens_sp~    0.933 0.0543    0.587 0.344          0.806
#> 10     4  0.05  net   max_sens_sp~    0.911 0.0306    0.76  0.0708         0.848
#> # ... with 30 more rows, and 15 more variables: SORENSEN_sd <dbl>,
#> #   JACCARD_mean <dbl>, JACCARD_sd <dbl>, FPB_mean <dbl>, FPB_sd <dbl>,
#> #   OR_mean <dbl>, OR_sd <dbl>, TSS_mean <dbl>, TSS_sd <dbl>, AUC_mean <dbl>,
#> #   AUC_sd <dbl>, BOYCE_mean <dbl>, BOYCE_sd <dbl>, IMAE_mean <dbl>,
#> #   IMAE_sd <dbl>
net_t$data_ens

#> # A tibble: 1,400 x 5
#>    rnames replicates part  pr_ab   pred
#>    <chr>  <chr>      <chr> <fct>  <dbl>
#>  1 4      .part      1     0     0.0129
#>  2 13     .part      1     0     0.0134
#>  3 19     .part      1     0     0.0884
#>  4 20     .part      1     0     0.415 
#>  5 24     .part      1     0     0.873 
#>  6 27     .part      1     0     0.223 
#>  7 28     .part      1     0     0.0128
#>  8 31     .part      1     0     0.0915
#>  9 42     .part      1     0     0.0877
#> 10 48     .part      1     0     0.0861
#> # ... with 1,390 more rows
…
