Fit and validate Support Vector Machine models with exploration of hyper-parameters — tune_svm • flexsdm
…
hyper_performance: Performance metric (see sdm_eval) for each combination of the hyper-parameters.

data_ens: Predicted suitability for each test partition based on the best model. This database is used in fit_ensemble

    See also

    tune_gbm, tune_max, tune_net, and tune_raf.

    Examples

# \dontrun{
data(abies)
abies

#> # A tibble: 1,400 x 13
#>       id pr_ab        x        y   aet   cwd  tmin ppt_djf ppt_jja    pH    awc
#>    <int> <dbl>    <dbl>    <dbl> <dbl> <dbl> <dbl>   <dbl>   <dbl> <dbl>  <dbl>
#>  1   715     0  -95417.  314240.  323.  546.  1.24    62.7   17.8   5.77 0.108 
#>  2  5680     0   98987. -159415.  448.  815.  9.43   130.     6.43  5.60 0.160 
#>  3  7907     0  121474.  -99463.  182.  271. -4.95   151.    11.2   0    0     
#>  4  1850     0  -39976.  -17456.  372.  946.  8.78   116.     2.70  6.41 0.0972
#>  5  1702     0  111372.  -91404.  209.  399. -4.03   165.     9.27  0    0     
#>  6 10036     0 -255715.  392229.  308.  535.  4.66   166.    16.5   5.70 0.0777
#>  7 12384     0 -311765.  380213.  568.  352.  4.38   480.    41.2   5.80 0.110 
#>  8  6513     0  111360. -120229.  327.  633.  4.93   163.     8.91  1.18 0.0116
#>  9  9884     0 -284326.  442136.  377.  446.  3.99   296.    16.8   5.96 0.0900
#> 10  8651     0  137640. -110538.  215.  265. -4.62   180.     9.57  0    0     
#> # ... with 1,390 more rows, and 2 more variables: depth <dbl>, landform <fct>
…
#> # A tibble: 1 x 27
#>       C sigma model threshold   thr_value n_presences n_absences TPR_mean TPR_sd
#>   <dbl> <dbl> <chr> <chr>           <dbl>       <int>      <int>    <dbl>  <dbl>
#> 1     4   0.2 svm   max_sens_s~     0.549         700        700    0.897 0.0390
#> # ... with 18 more variables: TNR_mean <dbl>, TNR_sd <dbl>,
#> #   SORENSEN_mean <dbl>, SORENSEN_sd <dbl>, JACCARD_mean <dbl>,
#> #   JACCARD_sd <dbl>, FPB_mean <dbl>, FPB_sd <dbl>, OR_mean <dbl>, OR_sd <dbl>,
#> #   TSS_mean <dbl>, TSS_sd <dbl>, AUC_mean <dbl>, AUC_sd <dbl>,
#> #   BOYCE_mean <dbl>, BOYCE_sd <dbl>, IMAE_mean <dbl>, IMAE_sd <dbl>
svm_t$hyper_performance

#> # A tibble: 25 x 24
#>        C sigma model threshold     TPR_mean TPR_sd TNR_mean TNR_sd SORENSEN_mean
#>    <dbl> <dbl> <chr> <chr>            <dbl>  <dbl>    <dbl>  <dbl>         <dbl>
#>  1     2  0.01 svm   max_sens_spec    0.854 0.0736    0.849 0.0321         0.851
#>  2     2  0.1  svm   max_sens_spec    0.913 0.0605    0.854 0.0442         0.886
#>  3     2  0.2  svm   max_sens_spec    0.9   0.0258    0.867 0.0235         0.885
#>  4     2  0.3  svm   max_sens_spec    0.881 0.0406    0.889 0.0370         0.884
#>  5     2  0.4  svm   max_sens_spec    0.879 0.0513    0.897 0.0206         0.886
#>  6     4  0.01 svm   max_sens_spec    0.861 0.0465    0.856 0.0317         0.859
#>  7     4  0.1  svm   max_sens_spec    0.914 0.0449    0.854 0.0306         0.887
#>  8     4  0.2  svm   max_sens_spec    0.897 0.0390    0.88  0.0351         0.889
#>  9     4  0.3  svm   max_sens_spec    0.874 0.0599    0.894 0.0264         0.882
#> 10     4  0.4  svm   max_sens_spec    0.877 0.0690    0.891 0.0333         0.883
#> # ... with 15 more rows, and 15 more variables: SORENSEN_sd <dbl>,
#> #   JACCARD_mean <dbl>, JACCARD_sd <dbl>, FPB_mean <dbl>, FPB_sd <dbl>,
#> #   OR_mean <dbl>, OR_sd <dbl>, TSS_mean <dbl>, TSS_sd <dbl>, AUC_mean <dbl>,
#> #   AUC_sd <dbl>, BOYCE_mean <dbl>, BOYCE_sd <dbl>, IMAE_mean <dbl>,
#> #   IMAE_sd <dbl>
svm_t$data_ens

#> # A tibble: 1,400 x 5
#>    rnames replicates part  pr_ab     pred
#>    <chr>  <chr>      <chr> <fct>    <dbl>
#>  1 1      .part      1     0     0.0778  
#>  2 2      .part      1     0     0.241   
#>  3 3      .part      1     0     0.0121  
#>  4 4      .part      1     0     0.0202  
#>  5 5      .part      1     0     0.0154  
#>  6 6      .part      1     0     0.000472
#>  7 7      .part      1     0     0.0263  
#>  8 8      .part      1     0     0.0301  
#>  9 9      .part      1     0     0.00874 
#> 10 10     .part      1     0     0.924   
#> # ... with 1,390 more rows
…
