Fit and validate Maximum Entropy models with exploration of hyper-parameters — tune_max • flexsdm
…
data_ens: Predicted suitability for each test partition based on the best model. This database is used in fit_ensemble

    See also

    tune_gbm, tune_net, tune_raf, and tune_svm.

    Examples

# \dontrun{
data("abies")
data("backg")
abies # environmental conditions of presence-absence data

#> # A tibble: 1,400 x 13
#>       id pr_ab        x        y   aet   cwd  tmin ppt_djf ppt_jja    pH    awc
#>    <int> <dbl>    <dbl>    <dbl> <dbl> <dbl> <dbl>   <dbl>   <dbl> <dbl>  <dbl>
#>  1   715     0  -95417.  314240.  323.  546.  1.24    62.7   17.8   5.77 0.108 
#>  2  5680     0   98987. -159415.  448.  815.  9.43   130.     6.43  5.60 0.160 
#>  3  7907     0  121474.  -99463.  182.  271. -4.95   151.    11.2   0    0     
#>  4  1850     0  -39976.  -17456.  372.  946.  8.78   116.     2.70  6.41 0.0972
#>  5  1702     0  111372.  -91404.  209.  399. -4.03   165.     9.27  0    0     
#>  6 10036     0 -255715.  392229.  308.  535.  4.66   166.    16.5   5.70 0.0777
#>  7 12384     0 -311765.  380213.  568.  352.  4.38   480.    41.2   5.80 0.110 
#>  8  6513     0  111360. -120229.  327.  633.  4.93   163.     8.91  1.18 0.0116
#>  9  9884     0 -284326.  442136.  377.  446.  3.99   296.    16.8   5.96 0.0900
#> 10  8651     0  137640. -110538.  215.  265. -4.62   180.     9.57  0    0     
#> # ... with 1,390 more rows, and 2 more variables: depth <dbl>, landform <fct>
backg # environmental conditions of background points

#> # A tibble: 5,000 x 13
#>    pr_ab        x        y   aet   cwd  tmin ppt_djf ppt_jja    pH     awc depth
#>    <dbl>    <dbl>    <dbl> <dbl> <dbl> <dbl>   <dbl>   <dbl> <dbl>   <dbl> <dbl>
#>  1     0  160779. -449968.  280. 1137. 13.5     71.3    1.19 0     0         0  
#>  2     0   36849.   24152.  260.  382. -3.17   171.    17.5  0.212 0.00347 201  
#>  3     0 -240171.   90032.  400.  700.  8.68   285.     5.02 5.72  0.0804   50.1
#>  4     0 -152421. -143518.  367.  843.  9.01    72.0    1.20 7.54  0.170   154. 
#>  5     0 -193191.   24152.  397.  842.  8.97   125.     1.98 6.20  0.131   122. 
#>  6     0 -277971.  223682.  385.  637.  4.93   226.     8.16 5.81  0.0512   56.2
#>  7     0 -313341.  270122.  582.  406.  6.29   334.    18.4  5.80  0.168   201  
#>  8     0   54399.  -15538.  346.  195. -5.22   142.    13.0  5.60  0.120   201  
#>  9     0  282549. -582268.  285. 1097. 11.4     56.3    1.39 6.57  0.135    68.4
#> 10     0  104079. -178618.  385.  871.  6.76   147.     7.80 6.10  0.0300   41  
#> # ... with 4,990 more rows, and 2 more variables: percent_clay <dbl>,
#> #   landform <fct>

# Using k-fold partition method
# Remember that the partition method, number of folds or replications must
# be the same for presence-absence and background points datasets
abies2 <- part_random(
  data = abies,
  pr_ab = "pr_ab",
  method = c(method = "kfold", folds = 3)
)
abies2

#> # A tibble: 1,400 x 14
#>       id pr_ab        x        y   aet   cwd  tmin ppt_djf ppt_jja    pH    awc
#>    <int> <dbl>    <dbl>    <dbl> <dbl> <dbl> <dbl>   <dbl>   <dbl> <dbl>  <dbl>
#>  1   715     0  -95417.  314240.  323.  546.  1.24    62.7   17.8   5.77 0.108 
#>  2  5680     0   98987. -159415.  448.  815.  9.43   130.     6.43  5.60 0.160 
#>  3  7907     0  121474.  -99463.  182.  271. -4.95   151.    11.2   0    0     
#>  4  1850     0  -39976.  -17456.  372.  946.  8.78   116.     2.70  6.41 0.0972
#>  5  1702     0  111372.  -91404.  209.  399. -4.03   165.     9.27  0    0     
#>  6 10036     0 -255715.  392229.  308.  535.  4.66   166.    16.5   5.70 0.0777
#>  7 12384     0 -311765.  380213.  568.  352.  4.38   480.    41.2   5.80 0.110 
#>  8  6513     0  111360. -120229.  327.  633.  4.93   163.     8.91  1.18 0.0116
#>  9  9884     0 -284326.  442136.  377.  446.  3.99   296.    16.8   5.96 0.0900
#> 10  8651     0  137640. -110538.  215.  265. -4.62   180.     9.57  0    0     
#> # ... with 1,390 more rows, and 3 more variables: depth <dbl>, landform <fct>,
#> #   .part <int>

backg2 <- part_random(
  data = backg,
  pr_ab = "pr_ab",
  method = c(method = "kfold", folds = 3)
)
backg

#> # A tibble: 5,000 x 13
#>    pr_ab        x        y   aet   cwd  tmin ppt_djf ppt_jja    pH     awc depth
#>    <dbl>    <dbl>    <dbl> <dbl> <dbl> <dbl>   <dbl>   <dbl> <dbl>   <dbl> <dbl>
#>  1     0  160779. -449968.  280. 1137. 13.5     71.3    1.19 0     0         0  
#>  2     0   36849.   24152.  260.  382. -3.17   171.    17.5  0.212 0.00347 201  
#>  3     0 -240171.   90032.  400.  700.  8.68   285.     5.02 5.72  0.0804   50.1
#>  4     0 -152421. -143518.  367.  843.  9.01    72.0    1.20 7.54  0.170   154. 
#>  5     0 -193191.   24152.  397.  842.  8.97   125.     1.98 6.20  0.131   122. 
#>  6     0 -277971.  223682.  385.  637.  4.93   226.     8.16 5.81  0.0512   56.2
#>  7     0 -313341.  270122.  582.  406.  6.29   334.    18.4  5.80  0.168   201  
#>  8     0   54399.  -15538.  346.  195. -5.22   142.    13.0  5.60  0.120   201  
#>  9     0  282549. -582268.  285. 1097. 11.4     56.3    1.39 6.57  0.135    68.4
#> 10     0  104079. -178618.  385.  871.  6.76   147.     7.80 6.10  0.0300   41  
#> # ... with 4,990 more rows, and 2 more variables: percent_clay <dbl>,
#> #   landform <fct>
…
#> # A tibble: 1 x 27
#>   regmult classes model threshold     thr_value n_presences n_absences TPR_mean
#>     <dbl> <fct>   <chr> <chr>             <dbl>       <int>      <int>    <dbl>
#> 1     0.6 lq      max   max_sens_spec     0.342         700        700    0.931
#> # ... with 19 more variables: TPR_sd <dbl>, TNR_mean <dbl>, TNR_sd <dbl>,
#> #   SORENSEN_mean <dbl>, SORENSEN_sd <dbl>, JACCARD_mean <dbl>,
#> #   JACCARD_sd <dbl>, FPB_mean <dbl>, FPB_sd <dbl>, OR_mean <dbl>, OR_sd <dbl>,
#> #   TSS_mean <dbl>, TSS_sd <dbl>, AUC_mean <dbl>, AUC_sd <dbl>,
#> #   BOYCE_mean <dbl>, BOYCE_sd <dbl>, IMAE_mean <dbl>, IMAE_sd <dbl>
max_t1$data_ens

#> # A tibble: 1,400 x 5
#>    rnames replicates part  pr_ab     pred
#>    <chr>  <chr>      <chr> <dbl>    <dbl>
#>  1 1      .part      1         0 0.628   
#>  2 3      .part      1         0 0.822   
#>  3 5      .part      1         0 0.727   
#>  4 7      .part      1         0 0.00287 
#>  5 8      .part      1         0 0.780   
#>  6 13     .part      1         0 0.150   
#>  7 15     .part      1         0 0.856   
#>  8 16     .part      1         0 0.000272
#>  9 22     .part      1         0 0.126   
#> 10 23     .part      1         0 0.395   
#> # ... with 1,390 more rows
…
